{
  "cviceni": {
    "version": {
      "global": "<%= version %>",
      "content": 1
    },
    "katalog": ["test"],
    "language": "cs",
    "slug": "jak-prvni-svetova-valka-zmenila-hranice",
    "nazev": "Jak první světová válka změnila hranice?",
    "autor": ["Michal Kurz"],
    "klicovaSlova": [
      "důsledky první světové války",
      "vznik ČSR",
      "příčina a následek",
      "porovnáváme zdroje"
    ],
    "casovaOsa": {
      "roky": [
        1914,
        1924
      ],
      "epocha": {
        "svetova": [
          "první světová válka a její důsledky"
        ],
        "ceska": [
          "habsburská monarchie a její rozpad",
          "první Československá republika"
        ]
      }
    },
    "anotace": {
      "ucitel": "Cvičení pracuje s dvojicí politických map Evropy zachycujících situaci v letech 1914 a 1924. Žáci obě mapy srovnávají, označují nově vzniklé státy a popisují změny, které lze z map vyčíst. Cvičení lze spojit s výkladem důsledků první světové války a vzniku ČSR.",
      "verejna": "Jak silně otřásla situací v Evropě první světová válka? A co tento konflikt přinesl českým zemím? Vezměte si na pomoc dvojici map, porovnejte je a zkuste popsat změny, které z nich vyčtete. Získáte přehled o tom, komu výsledek války pomohl, a kdo jej naopak mohl vnímat jako křivdu."
    },
    "obtiznost": "nizka",
    "trvani": 20,
    "funkce": ["lupa", "cteni", "text", "svg", "pretahovani"],
    "pdf": {
      "doporucenyPostup": "jak-prvni-svetova-valka-zmenila-hranice.pdf"
    },
    "uvodniObrazek": "jak-prvni-svetova-valka-zmenila-hranice/pic-00-1280w.jpg",
    "id": 111
  },
  "slajd": [
    {
      "zadani": {
        "hlavni": "Prohlédněte si mapy znázorňující Evropu před první světovou válkou a po ní.",
        "rozsirujici": "Využijte přepínání vrstev."
      },
      "napoveda": {
        "aktivity": ["lupa"],
        "text": "Při kliknutí levým tlačítkem do obrazu lupa přiblíží část obrazu ve výřezu. Tlačítka pod mapou přepínají jednotlivé mapové listy."
      },
      "imitaceMapy": {
        "vrstvy": [
          {
            "nazev": "Mapa Evropy v roce 1914",
            "mapa": "jak-prvni-svetova-valka-zmenila-hranice/pic-00-1280w.jpg"
          },
          {
            "nazev": "Mapa Evropy v roce 1924",
            "mapa": "jak-prvni-svetova-valka-zmenila-hranice/pic-01-1280w.jpg"
          }
        ]
      }
    },
    {
      "zadani": {
        "hlavni": "Označte na mapě vpravo státy, které vznikly po první světové válce.",
        "rozsirujici": "K označeným změnám můžete připojit komentář."
      },
      "napoveda": {
        "aktivity": ["svg"],
        "text": "Kliknutím na snímek levým tlačítkem myši označujete bod. Nakliknutím na bod pravým tlačítkem otevřete menu s nabídkou úkonů: (T) doplnit textový komentář, (X) smazat nakliknutý objekt."
      },
      "svg": {
        "soubory": [
          {
            "id": "svg-1",
            "soubor": "jak-prvni-svetova-valka-zmenila-hranice/pic-00-1024w.jpg",
            "funkce": ["text", "znacky"],
            "barvy": ["red"]
          },
          {
            "id": "svg-2",
            "soubor": "jak-prvni-svetova-valka-zmenila-hranice/pic-01-1024w.jpg",
            "funkce": ["text", "znacky"],
            "barvy": ["red"]
          }
        ]
      },
      "popisky": [
        "Mapa Evropy v roce 1914. Zdroj: Martin Váňa",
        "Mapa Evropy v roce 1924. Zdroj: Martin Váňa"
      ]
    },
    {
      "zadani": {
        "hlavni": "Přiřaďte ke každé mapě pojmy, které nejvýstižněji charakterizují tehdejší Evropu.",
        "rozsirujici": ""
      },
      "napoveda": {
        "aktivity": ["razeni"],
        "text": "Pomocí drag and drop přesouvejte položky z nabídky do obrázku."
      },
      "svg": {
        "nastaveni": {
          "vzhled": "normalni",
          "layout": "vertikalni"
        },
        "pretahovani": {
          "id": "pretahovani-1",
          "items": [
            {
              "objekt": "převaha malých států",
              "medium": "tag"
            },
            {
              "objekt": "méně hranic",
              "medium": "tag"
            },
            {
              "objekt": "nová hlavní města",
              "medium": "tag"
            },
            {
              "objekt": "dominantní velké říše",
              "medium": "tag"
            },
            {
              "objekt": "více hranic",
              "medium": "tag"
            }
          ]
        },
        "soubory": [
          {
            "id": "svg-3",
            "soubor": "jak-prvni-svetova-valka-zmenila-hranice/pic-00-1024w.jpg",
            "popisek": "Mapa Evropy v roce 1914",
            "funkce": [],
            "drop": true,
            "duplikovat": ["svg-1"]
          },
          {
            "id": "svg-4",
            "soubor": "jak-prvni-svetova-valka-zmenila-hranice/pic-01-1024w.jpg",
            "popisek": "Mapa Evropy v roce 1924",
            "funkce": [],
            "drop": true,
            "duplikovat": ["svg-2"]
          }
        ]
      }
    },
    {
      "zadani": {
        "hlavni": "Odpovězte na otázky.",
        "rozsirujici": ""
      },
      "napoveda": {
        "aktivity": ["lupa", "text"],
        "text": "Do boxu pro text zapisujete odpověď na otázku, nebo jiný komentář (dle zadání)."
      },
      "uzivatelskyText": {
        "layout": "velka-galerie",
        "galerie": [
          {
            "typ": "svg",
            "objekt": {
              "id": "svg-3-dup",
              "soubor": "jak-prvni-svetova-valka-zmenila-hranice/pic-00-1024w.jpg",
              "duplikovat": ["svg-3"]
            }
          },
          {
            "typ": "svg",
            "objekt": {
              "id": "svg-4-dup",
              "soubor": "jak-prvni-svetova-valka-zmenila-hranice/pic-01-1024w.jpg",
              "duplikovat": ["svg-4"]
            }
          }
        ],
        "otazky": [
          {
            "id": "text-1",
            "zadani": "Jakým způsobem se po první světové válce změnilo uspořádání států v Evropě?",
            "instrukce": "Myslím si, že…",
            "minDelka": 10,
            "maxDelka": 800
          },
          {
            "id": "text-2",
            "zadani": "Jak se po první světové válce změnilo uspořádání Čech, Moravy a Slezska?",
            "instrukce": "Myslím si, že…",
            "minDelka": 10,
            "maxDelka": 800
          }
        ]
      }
    }
  ]
}
